<?xml version="1.0" encoding="UTF-8" standalone="no"?>
<!-- Created with Inkscape (http://www.inkscape.org/) -->

<svg
   width="210mm"
   height="297mm"
   viewBox="0 0 210 297"
   version="1.1"
   id="svg5"
   xml:space="preserve"
   inkscape:version="1.2.2 (732a01da63, 2022-12-09)"
   sodipodi:docname="partial-logo.svg"
   xmlns:inkscape="http://www.inkscape.org/namespaces/inkscape"
   xmlns:sodipodi="http://sodipodi.sourceforge.net/DTD/sodipodi-0.dtd"
   xmlns:xlink="http://www.w3.org/1999/xlink"
   xmlns="http://www.w3.org/2000/svg"
   xmlns:svg="http://www.w3.org/2000/svg"><sodipodi:namedview
     id="namedview7"
     pagecolor="#ffffff"
     bordercolor="#000000"
     borderopacity="0.25"
     inkscape:showpageshadow="2"
     inkscape:pageopacity="0.0"
     inkscape:pagecheckerboard="0"
     inkscape:deskcolor="#d1d1d1"
     inkscape:document-units="mm"
     showgrid="false"
     inkscape:zoom="2.025849"
     inkscape:cx="265.07405"
     inkscape:cy="617.27206"
     inkscape:window-width="1920"
     inkscape:window-height="991"
     inkscape:window-x="-9"
     inkscape:window-y="-9"
     inkscape:window-maximized="1"
     inkscape:current-layer="layer1" /><defs
     id="defs2"><inkscape:path-effect
       effect="powerclip"
       id="path-effect4501"
       is_visible="true"
       lpeversion="1"
       inverse="true"
       flatten="false"
       hide_clip="false"
       message="Utilice la regla de relleno parimpar en el diálogo &lt;b&gt;Relleno y borde&lt;/b&gt; si el resultado no está aplanada después de convertir el recorte en trayectos." /><linearGradient
       inkscape:collect="always"
       id="linearGradient3920"><stop
         style="stop-color:#2192fb;stop-opacity:1;"
         offset="0"
         id="stop3916" /><stop
         style="stop-color:#045eb4;stop-opacity:1;"
         offset="1"
         id="stop3918" /></linearGradient><linearGradient
       inkscape:collect="always"
       xlink:href="#linearGradient3920"
       id="linearGradient3922"
       x1="33.605343"
       y1="149.40768"
       x2="73.038487"
       y2="149.40768"
       gradientUnits="userSpaceOnUse"
       gradientTransform="translate(-0.26120769,-0.32650895)" /><clipPath
       clipPathUnits="userSpaceOnUse"
       id="clipPath4497"><ellipse
         style="display:none;fill:none;fill-opacity:1;stroke:#000000;stroke-width:0.181093;stroke-opacity:1"
         id="ellipse4499"
         cx="57.890076"
         cy="155.12453"
         rx="11.984945"
         ry="11.984944"
         d="M 69.875021,155.12453 A 11.984945,11.984944 0 0 1 57.890076,167.10947 11.984945,11.984944 0 0 1 45.90513,155.12453 11.984945,11.984944 0 0 1 57.890076,143.13958 11.984945,11.984944 0 0 1 69.875021,155.12453 Z" /><path
         id="lpe_path-effect4501"
         style="fill:none;fill-opacity:1;stroke:#000000;stroke-width:0.181093;stroke-opacity:1"
         class="powerclip"
         d="m 28.344131,124.4299 h 49.433144 v 49.30255 H 28.344131 Z m 41.53089,30.69463 A 11.984945,11.984944 0 0 0 57.890076,143.13958 11.984945,11.984944 0 0 0 45.90513,155.12453 11.984945,11.984944 0 0 0 57.890076,167.10947 11.984945,11.984944 0 0 0 69.875021,155.12453 Z" /></clipPath></defs><g
     inkscape:label="Capa 1"
     inkscape:groupmode="layer"
     id="layer1"><path
       style="fill:url(#linearGradient3922);fill-opacity:1;stroke:#ff0000;stroke-width:0.168698;stroke-opacity:0"
       id="path358"
       clip-path="url(#clipPath4497)"
       inkscape:path-effect="#path-effect4501"
       sodipodi:type="arc"
       sodipodi:cx="53.060703"
       sodipodi:cy="149.08118"
       sodipodi:rx="19.632223"
       sodipodi:ry="19.566923"
       d="M 72.692926,149.08118 A 19.632223,19.566923 0 0 1 53.060703,168.6481 19.632223,19.566923 0 0 1 33.42848,149.08118 19.632223,19.566923 0 0 1 53.060703,129.51425 19.632223,19.566923 0 0 1 72.692926,149.08118 Z"
       transform="translate(0.26120736,0.13060368)" /><circle
       id="path409"
       style="fill:#000000;stroke:#ff0000;stroke-width:0.264583"
       cx="46.175373"
       cy="149.42351"
       r="0.017221441" /></g></svg>
